{
  "currentPage": {
    "url": "/",
    "params": []
  },
  "template": {
    "familyPath": "cells-template-paper-header-panel",
    "tag": "cells-template-paper-header-panel",
    "properties": {
      "mode": "seamed",
      "zones": [
        "app__header",
        "app__main",
        "app__footer"
      ]
    }
  },
  "components": [
    {
      "zone": "app__main",
      "familyPath": "../elements/my-greeting",
      "tag": "my-greeting",
      "properties": {
        "cellsConnections": {
          "in": {},
          "out": {
            "foobar-channel": {
              "bind": "foobar-event",
              "link": {
                "page": "another",
                "params": {
                  "itemId": "itemId"
                }
              }
            },
            "greeting-channel": {
              "bind": "greeting-changed"
            },
            "adtm-user-info": {
              "bind": "user-is-logged"
            },
            "router-channel": {
              "bind": "router-event",
              "link": {
                "page": "routerExample",
                "params": {
                  "stateParam": "stateParam",
                  "queryParam": "queryParamGlobal",
                  "queryParamTwo": "queryParamTwo"
                }
              }
            }
          },
          "params": {
            "greeting": "globalGreeting",
            "persona": "globalPerson"
          }
        }
      }
    },
    {
      "zone": "app__main",
      "familyPath": "../elements/another-greeting",
      "tag": "another-greeting",
      "properties": {
        "cellsConnections": {
          "in": {
            "greeting-channel": {
              "bind": "another-greeting"
            }
          },
          "out": {}
        }
      }
    },
    {
      "zone": "app__main",
      "familyPath": "../elements/oldway-router",
      "tag": "oldway-router",
      "properties": {
        "cellsConnections": {
          "links": {
            "urlToDetailApp": {
              "page": "routerExample",
              "params": {
                "stateParam": "stateParam",
                "queryParam": "queryParamGlobal",
                "queryParamTwo": "queryParamTwo"
              }
            }
          }
        }
      }
    },
    {
      "zone": "app__main",
      "type": "CC",
      "familyPath": "../elements/example-cross-component",
      "tag": "example-cross-component",
      "properties": {
        "cellsConnections": {
          "in": {},
          "out": {}
        }
      }
    }
  ],
  "pages": {
    "another": {
      "url": "/another"
    },
    "routerExample": {
      "url": "routerExample/:stateParam/"
    }
  }
}
